// Jest Snapshot v1, https://goo.gl/fbAQLP

exports[`InfoItem renders correctly 1`] = `
<div
  className="InfoItem"
>
  <div
    className="InfoItem__title"
  >
    Some title
  </div>
</div>
`;

exports[`InfoItem renders correctly when empty title 1`] = `
<div
  className="InfoItem"
>
  <div
    className="InfoItem__title"
  />
</div>
`;
